<?xml version="1.0" encoding="UTF-8" standalone="no"?>
<!-- Created with Inkscape (http://www.inkscape.org/) -->

<svg
   width="10cm"
   height="10cm"
   viewBox="0 0 100 100"
   version="1.1"
   id="svg5"
   sodipodi:docname="yinyang.svg"
   inkscape:version="1.1 (c4e8f9ed74, 2021-05-24)"
   xmlns:inkscape="http://www.inkscape.org/namespaces/inkscape"
   xmlns:sodipodi="http://sodipodi.sourceforge.net/DTD/sodipodi-0.dtd"
   xmlns="http://www.w3.org/2000/svg"
   xmlns:svg="http://www.w3.org/2000/svg"
   xmlns:rdf="http://www.w3.org/1999/02/22-rdf-syntax-ns#"
   xmlns:cc="http://creativecommons.org/ns#"
   xmlns:dc="http://purl.org/dc/elements/1.1/">
  <title
     id="title11160">yinyang</title>
  <sodipodi:namedview
     id="namedview7"
     pagecolor="#ffffff"
     bordercolor="#666666"
     borderopacity="1.0"
     inkscape:pageshadow="2"
     inkscape:pageopacity="0.0"
     inkscape:pagecheckerboard="0"
     inkscape:document-units="mm"
     showgrid="false"
     units="cm"
     width="10cm"
     gridtolerance="10000"
     inkscape:zoom="1.8318311"
     inkscape:cx="-47.766413"
     inkscape:cy="165.40826"
     inkscape:window-width="1884"
     inkscape:window-height="1053"
     inkscape:window-x="0"
     inkscape:window-y="0"
     inkscape:window-maximized="1"
     inkscape:current-layer="layer1">
    <inkscape:grid
       type="xygrid"
       id="grid157"
       empspacing="13" />
  </sodipodi:namedview>
  <defs
     id="defs2" />
  <g
     inkscape:label="Layer 1"
     inkscape:groupmode="layer"
     id="layer1">
    <g
       id="g3174"
       transform="matrix(-0.97653395,0,0,1.0416666,105.41641,-0.28662737)"
       style="fill:#ffffff">
      <path
         style="fill:#ffffff;stroke:#000000;stroke-width:0.793749px;stroke-linecap:butt;stroke-linejoin:miter;stroke-opacity:1"
         d="m 61.91249,6.879163 c 0,0 -30.956249,20.6375 0,41.275 30.956252,20.637498 5e-6,41.275 5e-6,41.275 0,0 41.275005,0 41.275005,-41.275 0,-41.2749997 -41.275005,-41.2749997 -41.275005,-41.2749997"
         id="path152"
         sodipodi:nodetypes="cscsc" />
      <path
         style="fill:#ffffff;fill-opacity:1;stroke:#ffffff;stroke-width:0.793749px;stroke-linecap:butt;stroke-linejoin:miter;stroke-opacity:1"
         d="m 61.912488,6.8791638 c 0,0 -30.956249,20.6374992 0,41.2750002 30.956249,20.637498 3e-6,41.274999 3e-6,41.274999 0,0 41.274999,0 41.274999,-41.274999 0,-41.2749999 -41.274999,-41.2749999 -41.274999,-41.2749999"
         id="path2790"
         sodipodi:nodetypes="cscsc" />
      <ellipse
         style="fill:#1a1a1a;stroke-width:0.793749"
         id="path2832"
         cx="67.071869"
         cy="22.35729"
         rx="5.1593776"
         ry="5.1593752" />
    </g>
    <ellipse
       style="fill:#ffffff;stroke-width:0.80058"
       id="circle3180"
       cx="48.998558"
       cy="-81.517509"
       transform="matrix(0.99568668,-0.09277947,-0.0816197,-0.99666355,0,0)"
       rx="5.0409341"
       ry="5.3718824" />
    <g
       id="g4664"
       transform="matrix(2.9296017,0,0,-3.125,-86.039196,114.36614)"
       style="fill:#ffffff">
      <path
         style="fill:#ffffff;stroke:#000000;stroke-width:0.264583px;stroke-linecap:butt;stroke-linejoin:miter;stroke-opacity:1"
         d="m 48.154166,6.8791666 c 0,0 -10.31875,6.8791664 0,13.7583334 10.31875,6.879166 1e-6,13.758333 1e-6,13.758333 0,0 13.758333,0 13.758333,-13.758333 0,-13.7583333 -13.758333,-13.7583333 -13.758333,-13.7583333"
         id="path4656"
         sodipodi:nodetypes="cscsc" />
      <g
         id="g4662"
         style="fill:#ffffff">
        <path
           style="fill:#000000;stroke:#000000;stroke-width:0.264583px;stroke-linecap:butt;stroke-linejoin:miter;stroke-opacity:1"
           d="m 48.154166,6.8791666 c 0,0 -10.31875,6.8791664 0,13.7583334 10.31875,6.879166 1e-6,13.758333 1e-6,13.758333 0,0 13.758333,0 13.758333,-13.758333 0,-13.7583333 -13.758333,-13.7583333 -13.758333,-13.7583333"
           id="path4658"
           sodipodi:nodetypes="cscsc" />
        <circle
           style="fill:#ffffff;stroke-width:0.264583"
           id="circle4660"
           cx="49.873959"
           cy="12.038542"
           r="1.7197917" />
      </g>
    </g>
  </g>
  <metadata
     id="metadata11156">
    <rdf:RDF>
      <cc:Work
         rdf:about="">
        <cc:license
           rdf:resource="http://creativecommons.org/licenses/by/4.0/" />
        <dc:title>yinyang</dc:title>
        <dc:creator>
          <cc:Agent>
            <dc:title>Martin Sasse</dc:title>
          </cc:Agent>
        </dc:creator>
      </cc:Work>
      <cc:License
         rdf:about="http://creativecommons.org/licenses/by/4.0/">
        <cc:permits
           rdf:resource="http://creativecommons.org/ns#Reproduction" />
        <cc:permits
           rdf:resource="http://creativecommons.org/ns#Distribution" />
        <cc:requires
           rdf:resource="http://creativecommons.org/ns#Notice" />
        <cc:requires
           rdf:resource="http://creativecommons.org/ns#Attribution" />
        <cc:permits
           rdf:resource="http://creativecommons.org/ns#DerivativeWorks" />
      </cc:License>
    </rdf:RDF>
  </metadata>
</svg>
