<?xml version="1.0" encoding="UTF-8" standalone="no"?>
<!-- Created with Inkscape (http://www.inkscape.org/) -->

<svg
   width="10cm"
   height="10cm"
   viewBox="0 0 100 100"
   version="1.1"
   id="svg5"
   sodipodi:docname="yinyang.svg"
   inkscape:version="1.1 (c4e8f9ed74, 2021-05-24)"
   xmlns:inkscape="http://www.inkscape.org/namespaces/inkscape"
   xmlns:sodipodi="http://sodipodi.sourceforge.net/DTD/sodipodi-0.dtd"
   xmlns="http://www.w3.org/2000/svg"
   xmlns:svg="http://www.w3.org/2000/svg">
  <sodipodi:namedview
     id="namedview7"
     pagecolor="#ffffff"
     bordercolor="#666666"
     borderopacity="1.0"
     inkscape:pageshadow="2"
     inkscape:pageopacity="0.0"
     inkscape:pagecheckerboard="0"
     inkscape:document-units="mm"
     showgrid="true"
     units="cm"
     width="10cm"
     gridtolerance="10000"
     inkscape:zoom="1.8318311"
     inkscape:cx="250.8419"
     inkscape:cy="165.40826"
     inkscape:window-width="1884"
     inkscape:window-height="1053"
     inkscape:window-x="0"
     inkscape:window-y="0"
     inkscape:window-maximized="1"
     inkscape:current-layer="layer1">
    <inkscape:grid
       type="xygrid"
       id="grid157"
       empspacing="1" />
  </sodipodi:namedview>
  <defs
     id="defs2" />
  <g
     inkscape:label="Layer 1"
     inkscape:groupmode="layer"
     id="layer1">
    <path
       style="fill:#000000"
       id="path4437"
       sodipodi:type="arc"
       sodipodi:cx="49.609375"
       sodipodi:cy="49.609375"
       sodipodi:rx="46.963543"
       sodipodi:ry="46.963543"
       sodipodi:start="0"
       sodipodi:end="6.2820492"
       sodipodi:arc-type="arc"
       d="M 96.572918,49.609375 A 46.963543,46.963543 0 0 1 49.622714,96.572916 46.963543,46.963543 0 0 1 2.6458396,49.636053 46.963543,46.963543 0 0 1 49.569358,2.6458491 46.963543,46.963543 0 0 1 96.572888,49.556019"
       inkscape:label="path4437"
       sodipodi:open="true" />
    <path
       style="fill:#ffffff;stroke:#000000;stroke-width:0.264583px;stroke-linecap:butt;stroke-linejoin:miter;stroke-opacity:1"
       d="m 50.270833,96.572915 c 0,0 34.395833,-17.197916 0,-48.947916 -34.395833,-31.749999 0,-44.9791657 0,-44.9791657 0,0 44.979167,-1.3229166 46.302084,44.9791667 1.322916,46.302083 -46.302084,48.947917 -46.302084,48.947917"
       id="path5487" />
  </g>
</svg>
